-------------------------------------------------------------------------------
Test set: Scenario: Admin user Edit/Delete Employee
-------------------------------------------------------------------------------
Tests run: 9, Failures: 0, Errors: 0, Skipped: 0, Time elapsed: 11.69 s - in Scenario: Admin user Edit/Delete Employee
