com/ableto/pages/PageBase.class
com/ableto/utlis/DriverFactory$1.class
com/ableto/utlis/DriverFactory.class
com/ableto/pages/DashBoardPage.class
com/ableto/utlis/RandomTestData.class
com/ableto/utlis/WebElementUtils.class
com/ableto/utlis/SeleniumUtils.class
com/ableto/hook/StepBase.class
com/ableto/steps/EditAndDeleteEmpSteps.class
com/ableto/utlis/SeleniumUtils$1.class
com/ableto/utlis/DriverFactory$BrowserType.class
com/ableto/hook/BeforeAfterHook.class
